{
    "records": [
        {
            "attributes": {
                "type": "Opportunity",
                "referenceId": "OpportunityRef1"
            },
            "Name": "Sample Opportunity",
            "CloseDate": "2020-10-09",
            "StageName": "Qualification",
            "AccountId": "@AccountRef1"
        },
        {
            "attributes": {
                "type": "Opportunity",
                "referenceId": "OpportunityRef2"
            },
            "Name": "Ionic Mobile Application w/ Heroku Connect",
            "CloseDate": "2020-10-09",
            "StageName": "Needs Analysis",
            "AccountId": "@AccountRef2"
        },
        {
            "attributes": {
                "type": "Opportunity",
                "referenceId": "OpportunityRef3"
            },
            "Name": "Sales Cloud Implementation",
            "CloseDate": "2020-10-09",
            "StageName": "Value Proposition",
            "AccountId": "@AccountRef3"
        },
        {
            "attributes": {
                "type": "Opportunity",
                "referenceId": "OpportunityRef4"
            },
            "Name": "Service Cloud Implementation",
            "CloseDate": "2020-10-09",
            "StageName": "Value Proposition",
            "AccountId": "@AccountRef3"
        }
    ]
}